"Resource/UI/FreezePanel_Basic.res"
{
	"FreezePanel"
	{
		"ControlName"	"CTFFreezePanel"
		"fieldName"		"FreezePanel"

		"screenshot_move_panel_to_corner"	"1"
	}

	"FreezePanelBase"	[$X360]
	{
		"ControlName"	"EditablePanel"
		"fieldName"		"FreezePanelBase"
		"xpos"			"0"
		"ypos"			"0"		
		"wide"			"640"		
		"tall"			"480"		
		"visible"		"1"

		"NemesisSubPanel"
		{
			"ControlName"		"EditablePanel"
			"fieldName"		"NemesisSubPanel"
			"xpos"			"c46"
			"xpos_hidef"	"c109"
			"ypos"			"223"
			"ypos_hidef"		"223"
			"ypos_lodef"		"193"
			"zpos"			"4"
			"wide"			"166"
			"tall"			"38"
			"visible"		"1"

			"NemesisPanelBG"
			{
				"ControlName"		"ImagePanel"
				"fieldName"		"NemesisPanelBG"
				"xpos"			"0"
				"ypos"			"0"
				"zpos"			"5"
				"wide"			"166"
				"tall"			"38"
				"visible"		"1"
				"enabled"		"1"
				"image"			"../hud/freezecam_black_bg"
				"scaleImage"		"1"	
			}
			"NemesisIcon"
			{
				"ControlName"	"ImagePanel"
				"fieldName"		"NemesisIcon"
				"xpos"			"5"
				"ypos"			"-1"
				"zpos"			"6"
				"wide"			"36"
				"tall"			"36"
				"visible"		"1"
				"enabled"		"1"
				"image"			"../hud/leaderboard_nemesis_freezecam"
				"scaleImage"	"1"	
			}		
			"NemesisLabel"
			{	
				"ControlName"		"Label"
				"fieldName"		"NemesisLabel"
				"font"			"HudFontMediumSmall"
				"xpos"			"44"
				"ypos"			"10"
				"ypos_hidef"		"11"
				"ypos_lodef"		"13"
				"zpos"			"6"
				"wide"			"112"
				"tall"			"18"
				"tall_hidef"		"24"
				"autoResize"		"0"
				"pinCorner"		"0"
				"visible"		"1"
				"enabled"		"1"
				"labelText"		"%nemesisname%"
				"textAlignment"		"west"
			}
		}
		"FreezePanelBG"
		{
			"ControlName"		"CTFImagePanel"
			"fieldName"		"FreezePanelBG"
			"xpos"			"c-38"
			"xpos_hidef"		"c25"
			"ypos"			"245"
			"ypos_hidef"		"245"
			"ypos_lodef"		"215"
			"zpos"			"0"
			"wide"			"266"
			"tall"			"48"
			"visible"		"1"
			"enabled"		"1"
			"image"			"../hud/color_panel_blu"
			"scaleImage"		"1"	
		}

		"FreezeLabel"
		{	
			"ControlName"		"Label"
			"fieldName"		"FreezeLabel"
			"font"			"DefaultSmall"
			"xpos"			"c2"
			"xpos_hidef"		"c65"
			"ypos"			"255"
			"ypos_hidef"		"256"
			"ypos_lodef"		"225"
			"zpos"			"1"
			"wide"			"252"
			"tall"			"9"
			"autoResize"		"0"
			"pinCorner"		"0"
			"visible"		"1"
			"enabled"		"1"
			"labelText"		"#FreezePanel_Killer"
			"textAlignment"		"Left"
			"dulltext"		"0"
			"brighttext"		"0"
		}

		"FreezeLabelKiller"
		{	
			"ControlName"		"Label"
			"fieldName"		"FreezeLabelKiller"
			"font"			"HudFontSmall"
			"xpos"			"c6"			// No avatar image on X360
			"xpos_hidef"		"c69"
			"ypos"			"266"
			"ypos_hidef"		"266"
			"ypos_lodef"		"236"
			"zpos"			"1"
			"wide"			"252"
			"tall"			"18"
			"autoResize"	"0"
			"pinCorner"		"0"
			"visible"		"1"
			"enabled"		"1"
			"labelText"		"%killername%"
			"textAlignment"		"Left"
		}

		"FreezePanelHealth"
		{
			"ControlName"		"EditablePanel"
			"fieldName"		"FreezePanelHealth"
			"xpos"			"c-30"
			"xpos_hidef"		"c35"
			"ypos"			"253"
			"ypos_hidef"		"253"
			"ypos_lodef"		"223"
			"zpos"			"1"
			"wide"			"36"
			"tall"			"32"
			"visible"		"1"
			"enabled"		"1"	
			"HealthBonusPosAdj"	"9"
			"HealthDeathWarning"	"0.49"
			"TFFont"		"HudFontSmall"
			"HealthDeathWarningColor"	"HUDDeathWarning"
			"TextColor"		"HudOffWhite"
		}	
	}

	"itempanel"
	{
		"ControlName"	"CItemModelPanel"
		"fieldName"		"itempanel"
		"xpos"			"r270"
		"ypos"			"300"
		"zpos"			"1"
		"wide"			"270"
		"tall"			"180"
		"visible"		"0"
		"bgcolor_override"		"255 255 255 0"
		"PaintBackgroundType"	"0"
		
		"model_xpos"		"10"
		"model_center_y"	"1"
		"model_wide"		"90"
		"model_tall"		"55"
		
		"text_xpos"		"90"
		"text_wide"		"170"
		"text_center"	"1"
		
		"max_text_height"	"90"
		"padding_height"	"40"
		"resize_to_text"	"1"
		"text_forcesize"	"2"
		
		"itemmodelpanel"
		{
			"fieldName"		"itemmodelpanel"
			"use_item_rendertarget" "0"
			"useparentbg"		"1"
		}
		
		"ItemLabel"
		{	
			"ControlName"	"Label"
			"fieldName"		"ItemLabel"
			"font"			"DefaultSmall"
			"xpos"			"10"
			"ypos"			"3"
			"zpos"			"1"
			"wide"			"270"
			"tall"			"9"
			"autoResize"	"0"
			"pinCorner"		"0"
			"visible"		"1"
			"enabled"		"1"
			"labelText"		"#FreezePanel_Item"
			"textAlignment"	"Left"
			"dulltext"		"0"
			"brighttext"	"0"
		}
	}		
	
	"FreezePanelBase"	[$WIN32]
	{
		"ControlName"	"EditablePanel"
		"fieldName"		"FreezePanelBase"
		"xpos"			"r270"
		"ypos"			"93"		
		"wide"			"267"		
		"tall"			"200"		
		"visible"		"1"

		"FreezePanelBG"
		{
			"ControlName"		"CTFImagePanel"
			"fieldName"		"FreezePanelBG"
			"xpos"			"8"
			"ypos"			"160"
			"zpos"			"0"
			"wide"			"256"
			"tall"			"33"
			"visible"		"1"
			"enabled"		"1"
			"image"			"../hud/color_panel_blu"
			"scaleImage"		"1"	
			
			"src_corner_height"		"23"				// pixels inside the image
			"src_corner_width"		"23"
				
			"draw_corner_width"		"5"				// screen size of the corners ( and sides ), proportional
			"draw_corner_height" 	"5"	
		}
		
		"FreezeLabel"
		{	
			"ControlName"		"Label"
			"fieldName"		"FreezeLabel"
			"font"			"DefaultSmall"
			"xpos"			"40"
			"ypos"			"162"
			"zpos"			"1"
			"wide"			"252"
			"tall"			"12"
			"autoResize"		"0"
			"pinCorner"		"0"
			"visible"		"1"
			"enabled"		"1"
			"labelText"		"#FreezePanel_Killer"
			"textAlignment"		"North-West"
			"dulltext"		"0"
			"brighttext"		"0"
		}
		
		"FreezePanelHealth"		[$WIN32]
		{
			"ControlName"	"CTFFreezePanelHealth"
			"fieldName"		"FreezePanelHealth"
			"xpos"			"8"
			"ypos"			"160"
			"zpos"			"1"
			"wide"			"31"
			"tall"			"31"
			"visible"		"1"
			"enabled"		"1"	
			"HealthBonusPosAdj"	"9"
			"HealthDeathWarning"	"0.49"
			"TFFont"		"HudFontSmall"
			"HealthDeathWarningColor"	"HUDDeathWarning"
			"TextColor"		"HudOffWhite"
		}	

		"FreezeLabelKiller"
		{	
			"ControlName"	"Label"
			"fieldName"		"FreezeLabelKiller"
			"font"			"HudFontSmall"
			"xpos"			"61"
			"ypos"			"173"
			"zpos"			"5"
			"wide"			"252"
			"tall"			"18"
			"autoResize"	"0"
			"pinCorner"		"0"
			"visible"		"1"
			"enabled"		"1"
			"labelText"		"%killername%"
			"textAlignment"		"Left"
		}

		"AvatarImage"
		{
			"ControlName"		"CAvatarImagePanel"
			"fieldName"		"AvatarImage"
			"xpos"			"49"
			"ypos"			"174"
			"zpos"			"0"
			"wide"			"14"
			"tall"			"14"
			"visible"		"1"
			"enabled"		"1"
			"image"			""
			"scaleImage"		"1"	
			"color_outline"		"52 48 45 255"
		}	
		
		"NemesisSubPanel"
		{
			"ControlName"		"EditablePanel"
			"fieldName"		"NemesisSubPanel"
			"xpos"			"0"		// FIXME
			"ypos"			"130"
			"zpos"			"4"
			"wide"			"306"
			"tall"			"38"
			"visible"		"1"

			"NemesisPanelBG"
			{
				"ControlName"		"ScalableImagePanel"
				"fieldName"		"NemesisPanelBG"
				"xpos"			"95"
				"ypos"			"4"
				"zpos"			"5"
				"wide"			"161"
				"tall"			"30"
				"visible"		"1"
				"enabled"		"1"
				"image"			"../hud/color_panel_brown"
				"scaleImage"		"1"	
				
				"src_corner_height"		"23"				// pixels inside the image
				"src_corner_width"		"23"
					
				"draw_corner_width"		"6"				// screen size of the corners ( and sides ), proportional
				"draw_corner_height" 	"6"	
			}
			"NemesisIcon"
			{
				"ControlName"	"ImagePanel"
				"fieldName"		"NemesisIcon"
				"xpos"			"95"
				"ypos"			"-1"
				"zpos"			"6"
				"wide"			"36"
				"tall"			"36"
				"visible"		"1"
				"enabled"		"1"
				"image"			"../hud/leaderboard_nemesis_freezecam"
				"scaleImage"	"1"	
			}		
			"NemesisLabel"
			{	
				"ControlName"		"Label"
				"fieldName"		"NemesisLabel"
				"font"			"HudFontMediumSmall"
				"xpos"			"134"
				"ypos"			"10"
				"zpos"			"6"
				"wide"			"112"
				"tall"			"18"
				"autoResize"		"0"
				"pinCorner"		"0"
				"visible"		"1"
				"enabled"		"1"
				"labelText"		"%nemesisname%"
				"textAlignment"		"west"
			}
			"NemesisLabel2"
			{	
				"ControlName"		"Label"
				"fieldName"		"NemesisLabel2"
				"font"			"DefaultSmall"
				"xpos"			"134"
				"ypos"			"10"
				"zpos"			"6"
				"wide"			"112"
				"tall"			"18"
				"autoResize"		"0"
				"pinCorner"		"0"
				"visible"		"0"
				"enabled"		"1"
				"labelText"		"%nemesisadvice%"
				"textAlignment"		"west"
			}
		}
	}
		
	"ScreenshotPanel"
	{
		"ControlName"	"EditablePanel"
		"fieldName"		"ScreenshotPanel"
		"xpos"			"c-83"
		"ypos"			"50"
		"zpos"			"2"
		"wide"			"166"
		"tall"			"40"
		"visible"		"0"
			
		"ScreenshotPanelBG"
		{
			"ControlName"		"ImagePanel"
			"fieldName"		"ScreenshotPanelBG"
			"xpos"			"0"
			"ypos"			"8"
			"zpos"			"0"
			"wide"			"166"
			"tall"			"38"
			"visible"		"1"
			"enabled"		"1"
			"image"			"../hud/freezecam_black_bg"
			"scaleImage"		"1"
		}
		"ScreenshotIcon"
		{
			"ControlName"		"ImagePanel"
			"fieldName"		"ScreenshotIcon"
			"xpos"			"3"
			"ypos"			"0"
			"zpos"			"1"
			"wide"			"36"
			"tall"			"36"
			"visible"		"1"
			"enabled"		"1"
			"image"			"../hud/ico_camera"
			"scaleImage"	"1"	
		}		
		"ScreenshotLabel"
		{	
			"ControlName"		"Label"
			"fieldName"		"ScreenshotLabel"
			"font"			"SpectatorKeyHints"
			"xpos"			"40"
			"ypos"			"25"
			"zpos"			"2"
			"wide"			"133"
			"tall"			"12"
			"autoResize"		"0"
			"pinCorner"		"0"
			"visible"		"1"
			"enabled"		"1"
			"labelText"		"%text%"
			"textAlignment"		"west"
			"dulltext"		"0"
			"brighttext"		"0"
		}
	}	
}
