"Resource/UI/HudDamageAccount.res"
{
	"CDamageAccountPanel"
	{
		"fieldName"				"CDamageAccountPanel"
		"text_x"				"0"
		"text_y"				"0"
		"delta_item_end_y"		"0"
		"PositiveColor"			"0 255 0 255"
		"NegativeColor"			"255 255 255 255"
		"delta_lifetime"		"1.5"
		"delta_item_font"		"HudFontMediumBold_outline"
		"delta_item_font_big"	"HudFontMediumBold_outline"
	}
}
