"Resource/UI/HudHealthAccount.res"
{
	"CHealthAccountPanel"
	{
		"fieldName"				"CHealthAccountPanel"
		"delta_item_x"			"13"
		"delta_item_start_y"	"50"
		"delta_item_end_y"		"0"
		"PositiveColor"			"0 255 0 255"
		"NegativeColor"			"255 0 0 255"
		"delta_lifetime"		"1.5"
		"delta_item_font"		"HudFontMediumBold_outline"
	}
}
