"Resource/UI/SpectatorTournamentGUIHealth.res"
{
	"PlayerStatusHealthImage"
	{
		"ControlName"	"ImagePanel"
		"fieldName"		"PlayerStatusHealthImage"
		"xpos"			"7"
		"ypos"			"7"
		"zpos"			"4"
		"wide"			"14"
		"tall"			"14"
		"visible"		"1"
		"enabled"		"1"
		"scaleImage"	"1"	
	}
	"PlayerStatusHealthImageBG"
	{
		"ControlName"	"ImagePanel"
		"fieldName"		"PlayerStatusHealthImageBG"
		"xpos"			"6"
		"ypos"			"6"
		"zpos"			"3"
		"wide"			"16"
		"tall"			"16"
		"visible"		"1"
		"enabled"		"1"
		"image"			"../hud/health_bg"
		"scaleImage"	"1"	
	}
	"BuildingStatusHealthImageBG"
	{
		"ControlName"	"ImagePanel"
		"fieldName"		"BuildingStatusHealthImageBG"
		"xpos"	"2"
		"ypos"	"3"
		"zpos"			"2"
		"wide"	"22"
		"tall"	"22"
		"visible"		"0"
		"enabled"		"1"
		"image"			"../hud/health_equip_bg"
		"scaleImage"	"1"	
	}
	"PlayerStatusHealthBonusImage"
	{
		"ControlName"	"ImagePanel"
		"fieldName"		"PlayerStatusHealthBonusImage"
		"xpos"	"8"
		"ypos"	"8"
		"zpos"			"3"
		"wide"	"12"
		"tall"	"12"
		"visible"		"0"
		"enabled"		"1"
		"image"			"../hud/health_over_bg"
		"scaleImage"	"1"	
	}
	"PlayerStatusHealthValue"
	{
		"ControlName"	"Label"
		"fieldName"		"PlayerStatusHealthValue"
		"xpos"			"15"
		"ypos"			"13"
		"zpos"			"5"
		"wide"			"32"
		"tall"			"18"
		"visible"		"1"
		"enabled"		"1"
		"textAlignment"	"west"
		"labelText" 	"%Health%"
		"font"			"FontStorePriceSmall"
	}
	"PlayerStatusHealthValueShadow"
	{
		"ControlName"	"Label"
		"fieldName"		"PlayerStatusHealthValueShadow"
		"xpos"			"16"
		"ypos"			"14"
		"zpos"			"4"
		"wide"			"32"
		"tall"			"18"
		"visible"		"1"
		"enabled"		"1"
		"textAlignment"	"west"
		"labelText" 	"%Health%"
		"font"			"FontStorePriceSmall"
		"fgcolor_override"		"Black"
	}
}
