"Resource/UI/SpectatorGUIHealth.res"
{
	"PlayerStatusHealthImage"
	{
		"ControlName"	"ImagePanel"
		"fieldName"		"PlayerStatusHealthImage"
		"xpos"			"7"
		"ypos"			"7"
		"zpos"			"4"
		"wide"			"18"
		"wide_minmode"	"14"
		"tall"			"18"
		"tall_minmode"	"14"
		"visible"		"1"
		"enabled"		"1"
		"scaleImage"	"1"
	}
	"PlayerStatusHealthImageBG"
	{
		"ControlName"	"ImagePanel"
		"fieldName"		"PlayerStatusHealthImageBG"
		"xpos"			"5"
		"xpos_minmode"	"6"
		"ypos"			"5"
		"ypos_minmode"	"6"
		"zpos"			"3"
		"wide"			"22"
		"wide_minmode"	"16"
		"tall"			"22"
		"tall_minmode"	"16"
		"visible"		"1"
		"enabled"		"1"
		"image"			"../hud/health_bg"
		"scaleImage"	"1"
	}
	"BuildingStatusHealthImageBG"
	{
		"ControlName"	"ImagePanel"
		"fieldName"		"BuildingStatusHealthImageBG"
		"xpos"			"0"
		"xpos_minmode"	"2"
		"ypos"			"2"
		"ypos_minmode"	"3"
		"zpos"			"2"
		"wide"			"28"
		"wide_minmode"	"22"
		"tall"			"28"
		"tall_minmode"	"22"
		"visible"		"0"
		"enabled"		"1"
		"image"			"../hud/health_equip_bg"
		"scaleImage"	"1"
	}
	"PlayerStatusHealthBonusImage"
	{
		"ControlName"	"ImagePanel"
		"fieldName"		"PlayerStatusHealthBonusImage"
		"xpos"			"5"
		"xpos_minmode"	"8"
		"ypos"			"5"
		"ypos_minmode"	"8"
		"zpos"			"3"
		"wide"			"22"
		"wide_minmode"	"12"
		"tall"			"22"
		"tall_minmode"	"12"
		"visible"		"0"
		"enabled"		"1"
		"image"			"../hud/health_over_bg"
		"scaleImage"	"1"
	}
	"PlayerStatusHealthValue"
	{
		"ControlName"	"Label"
		"fieldName"		"PlayerStatusHealthValue"
		"xpos"			"19"
		"ypos"			"13"
		"zpos"			"5"
		"wide"			"32"
		"tall"			"18"
		"visible"		"1"
		"enabled"		"1"
		"textAlignment"	"west"
		"labelText" 	"%Health%"
		"font"			"FontStorePrice"
	}
	"PlayerStatusHealthValueShadow"
	{
		"ControlName"	"Label"
		"fieldName"		"PlayerStatusHealthValueShadow"
		"xpos"			"20"
		"ypos"			"14"
		"zpos"			"4"
		"wide"			"32"
		"tall"			"18"
		"visible"		"1"
		"enabled"		"1"
		"textAlignment"	"west"
		"labelText" 	"%Health%"
		"font"			"FontStorePrice"
		"fgcolor_override"		"Black"
	}
	"PlayerStatusPlayerLevel"
	{
		"ControlName"	"CExLabel"
		"fieldName"		"PlayerStatusPlayerLevel"
		"xpos"			"8"
		"xpos_minmode"	"0"
		"ypos"			"9"
		"ypos"			"0"
		"zpos"			"5"
		"wide"			"16"
		"tall"			"12"
		"visible"		"0"
		"enabled"		"1"
		"textAlignment"	"center"
		"font"			"ScoreboardVerySmall"
		"fgcolor"		"TFOrange"
	}
}
